--- archive1.tar
+++ archive2.tar
├── file list
│ @@ -1 +1 @@
│ --rw-r--r--   0 lamby     (1000) lamby     (1000)       25 2021-09-12 11:53:14.000000 compressed.gz
│ +-rw-r--r--   0 lamby     (1000) lamby     (1000)       36 2021-09-12 11:59:26.000000 compressed.gz
├── compressed.gz
│ ├── filetype from file(1)
│ │ @@ -1 +1 @@
│ │ -gzip compressed data, last modified: Sun Mar 19 22:26:58 2017, from Unix
│ │ +gzip compressed data, was "compressed", last modified: Sun Sep 12 11:59:26 2021, max compression, from Unix
│ ├── compressed
│ │ @@ -1 +1 @@
│ │ -asdf
│ │ +bsdf
